^C:\USERS\TRIEVEONC\DOCUMENTS\VISUAL STUDIO 2015\PROJECTS\MISSERVER\MISSERVER\STDAFX.CPP
/c /ZI /nologo /W3 /WX- /sdl /Od /Oy- /D WIN32 /D _DEBUG /D _CONSOLE /D _UNICODE /D UNICODE /Gm /EHsc /RTC1 /MDd /GS /fp:precise /Zc:wchar_t /Zc:forScope /Zc:inline /Yc"stdafx.h" /Fp"DEBUG\MISSERVER.PCH" /Fo"DEBUG\\" /Fd"DEBUG\VC140.PDB" /Gd /TP /analyze- C:\USERS\TRIEVEONC\DOCUMENTS\VISUAL STUDIO 2015\PROJECTS\MISSERVER\MISSERVER\STDAFX.CPP
^C:\USERS\TRIEVEONC\DOCUMENTS\VISUAL STUDIO 2015\PROJECTS\MISSERVER\MISSERVER\CHAR.CPP
/c /ZI /nologo /W3 /WX- /sdl /Od /Oy- /D WIN32 /D _DEBUG /D _CONSOLE /D _UNICODE /D UNICODE /Gm /EHsc /RTC1 /MDd /GS /fp:precise /Zc:wchar_t /Zc:forScope /Zc:inline /Yu"stdafx.h" /Fp"DEBUG\MISSERVER.PCH" /Fo"DEBUG\\" /Fd"DEBUG\VC140.PDB" /Gd /TP /analyze- C:\USERS\TRIEVEONC\DOCUMENTS\VISUAL STUDIO 2015\PROJECTS\MISSERVER\MISSERVER\CHAR.CPP
^C:\USERS\TRIEVEONC\DOCUMENTS\VISUAL STUDIO 2015\PROJECTS\MISSERVER\MISSERVER\CLIENT.CPP
/c /ZI /nologo /W3 /WX- /sdl /Od /Oy- /D WIN32 /D _DEBUG /D _CONSOLE /D _UNICODE /D UNICODE /Gm /EHsc /RTC1 /MDd /GS /fp:precise /Zc:wchar_t /Zc:forScope /Zc:inline /Yu"stdafx.h" /Fp"DEBUG\MISSERVER.PCH" /Fo"DEBUG\\" /Fd"DEBUG\VC140.PDB" /Gd /TP /analyze- C:\USERS\TRIEVEONC\DOCUMENTS\VISUAL STUDIO 2015\PROJECTS\MISSERVER\MISSERVER\CLIENT.CPP
^C:\USERS\TRIEVEONC\DOCUMENTS\VISUAL STUDIO 2015\PROJECTS\MISSERVER\MISSERVER\FUNCHANDLER.CPP
/c /ZI /nologo /W3 /WX- /sdl /Od /Oy- /D WIN32 /D _DEBUG /D _CONSOLE /D _UNICODE /D UNICODE /Gm /EHsc /RTC1 /MDd /GS /fp:precise /Zc:wchar_t /Zc:forScope /Zc:inline /Yu"stdafx.h" /Fp"DEBUG\MISSERVER.PCH" /Fo"DEBUG\\" /Fd"DEBUG\VC140.PDB" /Gd /TP /analyze- C:\USERS\TRIEVEONC\DOCUMENTS\VISUAL STUDIO 2015\PROJECTS\MISSERVER\MISSERVER\FUNCHANDLER.CPP
^C:\USERS\TRIEVEONC\DOCUMENTS\VISUAL STUDIO 2015\PROJECTS\MISSERVER\MISSERVER\MISSERVER.CPP
/c /ZI /nologo /W3 /WX- /sdl /Od /Oy- /D WIN32 /D _DEBUG /D _CONSOLE /D _UNICODE /D UNICODE /Gm /EHsc /RTC1 /MDd /GS /fp:precise /Zc:wchar_t /Zc:forScope /Zc:inline /Yu"stdafx.h" /Fp"DEBUG\MISSERVER.PCH" /Fo"DEBUG\\" /Fd"DEBUG\VC140.PDB" /Gd /TP /analyze- C:\USERS\TRIEVEONC\DOCUMENTS\VISUAL STUDIO 2015\PROJECTS\MISSERVER\MISSERVER\MISSERVER.CPP
^C:\USERS\TRIEVEONC\DOCUMENTS\VISUAL STUDIO 2015\PROJECTS\MISSERVER\MISSERVER\NUMERIC.CPP
/c /ZI /nologo /W3 /WX- /sdl /Od /Oy- /D WIN32 /D _DEBUG /D _CONSOLE /D _UNICODE /D UNICODE /Gm /EHsc /RTC1 /MDd /GS /fp:precise /Zc:wchar_t /Zc:forScope /Zc:inline /Yu"stdafx.h" /Fp"DEBUG\MISSERVER.PCH" /Fo"DEBUG\\" /Fd"DEBUG\VC140.PDB" /Gd /TP /analyze- C:\USERS\TRIEVEONC\DOCUMENTS\VISUAL STUDIO 2015\PROJECTS\MISSERVER\MISSERVER\NUMERIC.CPP
^C:\USERS\TRIEVEONC\DOCUMENTS\VISUAL STUDIO 2015\PROJECTS\MISSERVER\MISSERVER\REAL.CPP
/c /ZI /nologo /W3 /WX- /sdl /Od /Oy- /D WIN32 /D _DEBUG /D _CONSOLE /D _UNICODE /D UNICODE /Gm /EHsc /RTC1 /MDd /GS /fp:precise /Zc:wchar_t /Zc:forScope /Zc:inline /Yu"stdafx.h" /Fp"DEBUG\MISSERVER.PCH" /Fo"DEBUG\\" /Fd"DEBUG\VC140.PDB" /Gd /TP /analyze- C:\USERS\TRIEVEONC\DOCUMENTS\VISUAL STUDIO 2015\PROJECTS\MISSERVER\MISSERVER\REAL.CPP
^C:\USERS\TRIEVEONC\DOCUMENTS\VISUAL STUDIO 2015\PROJECTS\MISSERVER\MISSERVER\STRING.CPP
/c /ZI /nologo /W3 /WX- /sdl /Od /Oy- /D WIN32 /D _DEBUG /D _CONSOLE /D _UNICODE /D UNICODE /Gm /EHsc /RTC1 /MDd /GS /fp:precise /Zc:wchar_t /Zc:forScope /Zc:inline /Yu"stdafx.h" /Fp"DEBUG\MISSERVER.PCH" /Fo"DEBUG\\" /Fd"DEBUG\VC140.PDB" /Gd /TP /analyze- C:\USERS\TRIEVEONC\DOCUMENTS\VISUAL STUDIO 2015\PROJECTS\MISSERVER\MISSERVER\STRING.CPP
^C:\USERS\TRIEVEONC\DOCUMENTS\VISUAL STUDIO 2015\PROJECTS\MISSERVER\MISSERVER\TYPE.CPP
/c /ZI /nologo /W3 /WX- /sdl /Od /Oy- /D WIN32 /D _DEBUG /D _CONSOLE /D _UNICODE /D UNICODE /Gm /EHsc /RTC1 /MDd /GS /fp:precise /Zc:wchar_t /Zc:forScope /Zc:inline /Yu"stdafx.h" /Fp"DEBUG\MISSERVER.PCH" /Fo"DEBUG\\" /Fd"DEBUG\VC140.PDB" /Gd /TP /analyze- C:\USERS\TRIEVEONC\DOCUMENTS\VISUAL STUDIO 2015\PROJECTS\MISSERVER\MISSERVER\TYPE.CPP
^C:\USERS\TRIEVEONC\DOCUMENTS\VISUAL STUDIO 2015\PROJECTS\MISSERVER\MISSERVER\VAR.CPP
/c /ZI /nologo /W3 /WX- /sdl /Od /Oy- /D WIN32 /D _DEBUG /D _CONSOLE /D _UNICODE /D UNICODE /Gm /EHsc /RTC1 /MDd /GS /fp:precise /Zc:wchar_t /Zc:forScope /Zc:inline /Yu"stdafx.h" /Fp"DEBUG\MISSERVER.PCH" /Fo"DEBUG\\" /Fd"DEBUG\VC140.PDB" /Gd /TP /analyze- C:\USERS\TRIEVEONC\DOCUMENTS\VISUAL STUDIO 2015\PROJECTS\MISSERVER\MISSERVER\VAR.CPP
^C:\USERS\TRIEVEONC\DOCUMENTS\VISUAL STUDIO 2015\PROJECTS\MISSERVER\MISSERVER\LABEL.CPP
/c /ZI /nologo /W3 /WX- /sdl /Od /Oy- /D WIN32 /D _DEBUG /D _CONSOLE /D _UNICODE /D UNICODE /Gm /EHsc /RTC1 /MDd /GS /fp:precise /Zc:wchar_t /Zc:forScope /Zc:inline /Yu"stdafx.h" /Fp"DEBUG\MISSERVER.PCH" /Fo"DEBUG\\" /Fd"DEBUG\VC140.PDB" /Gd /TP /analyze- C:\USERS\TRIEVEONC\DOCUMENTS\VISUAL STUDIO 2015\PROJECTS\MISSERVER\MISSERVER\LABEL.CPP
